<?xml version="1.0" encoding="utf-8"?>
<!-- Generator: Adobe Illustrator 18.1.1, SVG Export Plug-In . SVG Version: 6.00 Build 0)  -->
<!DOCTYPE svg PUBLIC "-//W3C//DTD SVG 1.0//EN" "http://www.w3.org/TR/2001/REC-SVG-20010904/DTD/svg10.dtd">
<svg version="1.0" xmlns="http://www.w3.org/2000/svg" xmlns:xlink="http://www.w3.org/1999/xlink" x="0px" y="0px"
	 viewBox="0 0 1920 1080" enable-background="new 0 0 1920 1080" xml:space="preserve">
<g id="floor">

		<rect y="462.9" fill="#FFFFFF" stroke="#000000" stroke-width="0.25" stroke-linecap="round" stroke-linejoin="round" stroke-miterlimit="10" width="1920" height="617.1"/>

		<polygon fill="#FFFFFF" stroke="#000000" stroke-width="0.25" stroke-linecap="round" stroke-linejoin="round" stroke-miterlimit="10" points="
		848.3,633.9 848.3,181.3 0,-40.1 0,894.9 	"/>
	<g>

			<polygon fill="#FFFFFF" stroke="#000000" stroke-width="0.25" stroke-linecap="round" stroke-linejoin="round" stroke-miterlimit="10" points="
			1920,-260.1 1920,23.9 1616.5,65.9 1605.1,38.1 935.1,153.9 935.1,166 848.3,181.3 0,-40.1 0,-260.1 		"/>

			<polygon fill="#FFFFFF" stroke="#000000" stroke-width="0.25" stroke-linecap="round" stroke-linejoin="round" stroke-miterlimit="10" points="
			1624.5,599.3 1920,626.6 1920,24.6 1624.5,64.8 		"/>

			<polygon fill="#FFFFFF" stroke="#000000" stroke-width="0.25" stroke-linecap="round" stroke-linejoin="round" stroke-miterlimit="10" points="
			1920,-93.4 1904.3,-38.1 1904.3,645.3 1920,647.3 		"/>

			<polygon fill="#FFFFFF" stroke="#000000" stroke-width="0.25" stroke-linecap="round" stroke-linejoin="round" stroke-miterlimit="10" points="
			1620.3,195.3 1886.3,169.3 1888.3,743.3 1869,740.6 1869,189.3 1641.7,207.9 1641.7,710.6 1620.3,706.6 		"/>

			<polygon fill="#CCCCCC" stroke="#000000" stroke-width="0.25" stroke-linecap="round" stroke-linejoin="round" stroke-miterlimit="10" points="
			1624.5,719.3 1616.5,718.4 1616.5,65.9 1624.5,64.8 		"/>

			<polygon fill="#FFFFFF" stroke="#000000" stroke-width="0.25" stroke-linecap="round" stroke-linejoin="round" stroke-miterlimit="10" points="
			1605,731.3 1605,37.9 935,153.9 935,640.6 		"/>
		<path fill="#EEEEEE" d="M948.5,436.4c2,0,11.5,4.5,11.5,4.5l5.5,204l-21.5-3.5l1-199L948.5,436.4z"/>
		<polygon fill="#EEEEEE" points="1390,299.9 1588,288.9 1592,447.9 1392,446.9 1385,436.9 1381,310.9 		"/>
		<path fill="#EEEEEE" d="M1151,485.9c4,0,125,1,125,1l19,4l0.4,22l5.1,6l0.4,21l-143-6l-16-13l-1-25L1151,485.9z"/>
		<polygon fill="#EEEEEE" points="1114,469.9 1095.7,457.3 1095,326.9 1338,306.9 1357,310.9 1359,476.9 		"/>
		<polygon fill="#EEEEEE" points="978,303.3 975.7,441.3 1080.3,445.6 1079.7,301.9 		"/>

			<polygon fill="#CCCCCC" stroke="#000000" stroke-width="0.25" stroke-linecap="round" stroke-linejoin="round" stroke-miterlimit="10" points="
			1605,731.3 1605,37.9 1616.5,65.9 1616.5,718.4 		"/>

			<path fill="#FFFFFF" stroke="#000000" stroke-width="0.25" stroke-linecap="round" stroke-linejoin="round" stroke-miterlimit="10" d="
			M1610.8,707.2c0,0,2.3,4.8,2.3,10.1s0,12.7,0,12.7l1.5,5.5l-684.8-93.5c0,0-0.7-3,0.8-7.5c1.3-4,1.8-8.5,1.8-8.5L1610.8,707.2z"/>
		<path fill="#EEEEEE" d="M1455,713.9c-1-3-4-22-4-22l3-5l-2-82l-19-5l-82-4l-5-20l-9-3l-2-12l-113-8l-15.5,24.2l-91.5-10.2l-39,12
			l-29,20l-3,16l20,23l-4,15v49l-41,27l365,73L1455,713.9z"/>

			<line fill="none" stroke="#000000" stroke-width="0.25" stroke-linecap="round" stroke-linejoin="round" stroke-miterlimit="10" x1="1453.1" y1="713.4" x2="1132.5" y2="669.6"/>

			<line fill="none" stroke="#000000" stroke-width="0.25" stroke-linecap="round" stroke-linejoin="round" stroke-miterlimit="10" x1="1094" y1="645.3" x2="1451.4" y2="688.1"/>
		<path fill="#EEEEEE" d="M1538,436.9l11,263c0,0-1.2,1.5-3,8c-2,7.3,2,10.3,2,10.3s10,2,14,6s1,3.7,1,3.7l-41.7-7.3l-7.3-283.7
			H1538z"/>

			<path fill="#FFFFFF" stroke="#000000" stroke-width="0.25" stroke-linecap="round" stroke-linejoin="round" stroke-miterlimit="10" d="
			M1610.8,707.2c0,0,2.3,4.8,2.3,10.1s0,12.7,0,12.7l1.5,5.5l5.7-12.5l-0.8-3.2c0,0-0.4-4.5-0.5-7.7c-0.1-5.4-2.8-8.7-2.8-8.7
			L1610.8,707.2z"/>

			<line fill="none" stroke="#000000" stroke-width="0.25" stroke-linecap="round" stroke-linejoin="round" stroke-miterlimit="10" x1="1534.4" y1="698.2" x2="1549" y2="699.9"/>
	</g>
	<path fill="#EEEEEE" d="M807,171.9c0,0-2,228-1,282s2,177,2,177s-8,12-15,12s-12-6-16-4s-10,19-14,20s-10,4-10,4s3-208,9-327
		s2-175,2-175L807,171.9z"/>
	<path fill="#EEEEEE" d="M275,34.9c0,0,0,53,2,80s2,112,4,145s-10,179-3,216s2,103,3,122s9,127,9,127s-17,16-33,10s-37-6-39-2
		s-14,24-31,28s-29,6-29,6s11-203,19-354s13-313,11-337s-6-54-6-54l3-10L275,34.9z"/>

		<path fill="none" stroke="#000000" stroke-width="0.25" stroke-linecap="round" stroke-linejoin="round" stroke-miterlimit="10" d="
		M256,48.9c0,3-3,169,2,204s0,201,2,222s2,150,2,150"/>

		<path fill="none" stroke="#000000" stroke-width="0.25" stroke-linecap="round" stroke-linejoin="round" stroke-miterlimit="10" d="
		M242,35.9c0,0-3,208-1,230s-8,140-6,192s1,152,1,152"/>

		<path fill="none" stroke="#000000" stroke-width="0.25" stroke-linecap="round" stroke-linejoin="round" stroke-miterlimit="10" d="
		M194,24.9c0,0,6,111,10,183s1,209-7,246s-5,153-5,153"/>

		<path fill="none" stroke="#000000" stroke-width="0.25" stroke-linecap="round" stroke-linejoin="round" stroke-miterlimit="10" d="
		M210,29.9c0,0-2,63,0,169s-5,269,2,324s7,86,7,86"/>

		<path fill="none" stroke="#000000" stroke-width="0.25" stroke-linecap="round" stroke-linejoin="round" stroke-miterlimit="10" d="
		M226,605.9c0,0-1-239-5-330s3-239,3-239"/>

		<path fill="none" stroke="#000000" stroke-width="0.25" stroke-linecap="round" stroke-linejoin="round" stroke-miterlimit="10" d="
		M263,53.9c0,0,1,148,1,187s2,115,2,115"/>

		<path fill="none" stroke="#000000" stroke-width="0.25" stroke-linecap="round" stroke-linejoin="round" stroke-miterlimit="10" d="
		M267,396.9c0,0,3,68,5,125s3,109,3,109"/>

		<path fill="none" stroke="#000000" stroke-width="0.25" stroke-linecap="round" stroke-linejoin="round" stroke-miterlimit="10" d="
		M769,167.9c-1,3,1,56,0,127s-4,153.5-2,185.5s6,88.5,6,88.5"/>

		<path fill="none" stroke="#000000" stroke-width="0.25" stroke-linecap="round" stroke-linejoin="round" stroke-miterlimit="10" d="
		M772.5,165.9c-1,0.5,1,41,2.5,95s-2.8,141.8-2.5,155.5c1,52.5-0.5,99-0.5,99"/>

		<path fill="none" stroke="#000000" stroke-width="0.25" stroke-linecap="round" stroke-linejoin="round" stroke-miterlimit="10" d="
		M776.5,576.4c-1-0.5,2-96,1.5-112.5s2.5-105,4-142.5s-4-110-3.5-120s1.5-31.5,1.5-31.5"/>

		<path fill="none" stroke="#000000" stroke-width="0.25" stroke-linecap="round" stroke-linejoin="round" stroke-miterlimit="10" d="
		M783,173.9c0,0,4.5,45.5,3,69s-1.5,135.5-2,155s1.5,83.5,1.5,89.5s-1,51.5-1,51.5"/>

		<path fill="none" stroke="#000000" stroke-width="0.25" stroke-linecap="round" stroke-linejoin="round" stroke-miterlimit="10" d="
		M795.5,173.9c0,0-3,92.5-4,168.5s1.5,88.5,2,102s0,40-1.5,47.5s5,73.5,5,73.5"/>

		<path fill="none" stroke="#000000" stroke-width="0.25" stroke-linecap="round" stroke-linejoin="round" stroke-miterlimit="10" d="
		M800.5,174.9c0,0,2,90,0,115.5s0,99,0,99"/>

		<path fill="none" stroke="#000000" stroke-width="0.25" stroke-linecap="round" stroke-linejoin="round" stroke-miterlimit="10" d="
		M794,364.4c0,1.5,4,32,5,67.5s4.5,139,4.5,139"/>

		<path fill="none" stroke="#000000" stroke-width="0.25" stroke-linecap="round" stroke-linejoin="round" stroke-miterlimit="10" d="
		M803.5,177.4c0,0-1,190.5,0,248.5s2,120.5,2,120.5"/>

		<polyline fill="none" stroke="#000000" stroke-width="0.25" stroke-linecap="round" stroke-linejoin="round" stroke-miterlimit="10" points="
		282.3,94.6 762.3,195.9 762.3,475.9 289.7,517.3 	"/>

		<line fill="none" stroke="#000000" stroke-width="0.25" stroke-linecap="round" stroke-linejoin="round" stroke-miterlimit="10" x1="489" y1="138.6" x2="489" y2="492.6"/>

		<line fill="none" stroke="#000000" stroke-width="0.25" stroke-linecap="round" stroke-linejoin="round" stroke-miterlimit="10" x1="526.3" y1="147.9" x2="526.3" y2="298.6"/>

		<line fill="none" stroke="#000000" stroke-width="0.25" stroke-linecap="round" stroke-linejoin="round" stroke-miterlimit="10" x1="552.3" y1="151.9" x2="552.3" y2="459.3"/>

		<line fill="none" stroke="#000000" stroke-width="0.25" stroke-linecap="round" stroke-linejoin="round" stroke-miterlimit="10" x1="609" y1="188.6" x2="609" y2="315.3"/>

		<line fill="none" stroke="#000000" stroke-width="0.25" stroke-linecap="round" stroke-linejoin="round" stroke-miterlimit="10" x1="620.3" y1="197.3" x2="620.3" y2="263.9"/>

		<line fill="none" stroke="#000000" stroke-width="0.25" stroke-linecap="round" stroke-linejoin="round" stroke-miterlimit="10" x1="673" y1="178.6" x2="673" y2="424.6"/>

		<line fill="none" stroke="#000000" stroke-width="0.25" stroke-linecap="round" stroke-linejoin="round" stroke-miterlimit="10" x1="715" y1="163.3" x2="715" y2="453.3"/>

		<line fill="none" stroke="#000000" stroke-width="0.25" stroke-linecap="round" stroke-linejoin="round" stroke-miterlimit="10" x1="293.7" y1="74.6" x2="293.7" y2="415.3"/>

		<line fill="none" stroke="#000000" stroke-width="0.25" stroke-linecap="round" stroke-linejoin="round" stroke-miterlimit="10" x1="329" y1="109.9" x2="329" y2="285.9"/>

		<line fill="none" stroke="#000000" stroke-width="0.25" stroke-linecap="round" stroke-linejoin="round" stroke-miterlimit="10" x1="336.3" y1="359.3" x2="336.3" y2="489.9"/>

		<line fill="none" stroke="#000000" stroke-width="0.25" stroke-linecap="round" stroke-linejoin="round" stroke-miterlimit="10" x1="405" y1="97.9" x2="405" y2="452.6"/>

		<line fill="none" stroke="#000000" stroke-width="0.25" stroke-linecap="round" stroke-linejoin="round" stroke-miterlimit="10" x1="429.7" y1="127.3" x2="429.7" y2="196.6"/>

		<line fill="none" stroke="#000000" stroke-width="0.25" stroke-linecap="round" stroke-linejoin="round" stroke-miterlimit="10" x1="449.7" y1="137.3" x2="449.7" y2="201.9"/>

		<line fill="none" stroke="#000000" stroke-width="0.25" stroke-linecap="round" stroke-linejoin="round" stroke-miterlimit="10" x1="499" y1="143.3" x2="499" y2="495.9"/>

		<line fill="none" stroke="#000000" stroke-width="0.25" stroke-linecap="round" stroke-linejoin="round" stroke-miterlimit="10" x1="667" y1="174.6" x2="667" y2="483.9"/>

		<line fill="none" stroke="#000000" stroke-width="0.25" stroke-linecap="round" stroke-linejoin="round" stroke-miterlimit="10" x1="303.7" y1="259.3" x2="753" y2="291.9"/>
	<path fill="#EEEEEE" d="M1547,865.9c15,6,72,6,43,46c-28.4,39.2-109,168.1-109,168.1h-184c0,0-275.4-72.5-295-76.1
		c-33-6-55-24-22-41s234-128,251-135s45-21,82-11S1532,859.9,1547,865.9z"/>
</g>
<g id="items">
	<g>

			<polygon fill="#CCCCCC" stroke="#000000" stroke-width="0.25" stroke-linecap="round" stroke-linejoin="round" stroke-miterlimit="10" points="
			859.8,179.4 857.3,179.7 859.8,625.2 878.3,628.9 881.5,629.4 899.8,628.9 903,629.4 922,628.9 925.3,629.4 935,640.6 935,180.2
			877,188.4 		"/>

			<path fill="#FFFFFF" stroke="#000000" stroke-width="0.25" stroke-linecap="round" stroke-linejoin="round" stroke-miterlimit="10" d="
			M923.3,472.2c-0.8,0-6.8-0.7-10.5,1.3s2.3,2.6,5.3,3.3s5.5,0.3,5.5,0.3L923.3,472.2z"/>

			<path fill="#FFFFFF" stroke="#000000" stroke-width="0.25" stroke-linecap="round" stroke-linejoin="round" stroke-miterlimit="10" d="
			M923.3,472.2c-0.8,0-6.8-0.5-10.5,1s2.3,2,5.3,2.5s5.5,0.3,5.5,0.3L923.3,472.2z"/>

			<path fill="#FFFFFF" stroke="#000000" stroke-width="0.25" stroke-linecap="round" stroke-linejoin="round" stroke-miterlimit="10" d="
			M923.8,543.7c-1.8,0.3-4.3-0.5-5-1.8s1.5-6,0-9.5s-3.5-9-3-10.3s4.3-3.3,4.5-4.5s2-3.3,3-2.8S923.8,543.7,923.8,543.7z"/>

			<path fill="#FFFFFF" stroke="#000000" stroke-width="0.25" stroke-linecap="round" stroke-linejoin="round" stroke-miterlimit="10" d="
			M901.3,508.2c0,0-4,0-5.5-0.3s-2.8,0.3-3-1.8s0-23.5,0-25.8s2.3-5.3,3.8-6s0.8-10.8,0.8-10.8l-0.3-3.3l3.8-0.3L901.3,508.2z"/>

			<path fill="#FFFFFF" stroke="#000000" stroke-width="0.25" stroke-linecap="round" stroke-linejoin="round" stroke-miterlimit="10" d="
			M913.3,411.4l2.3-4.8c0,0-5.8-2.3-3.5-9.5s11.8-10.5,11.8-10.5v27.8L913.3,411.4z"/>

			<path fill="#FFFFFF" stroke="#000000" stroke-width="0.25" stroke-linecap="round" stroke-linejoin="round" stroke-miterlimit="10" d="
			M901.5,429.4c0,0-3.3-4.3-6.3-3.8s-2,1.5-5.3,1.8s-5.8-0.5-5.8-0.5s0.5,1.8,1.8,2.3s2.8,0.8,2.8,0.8s1.3,1,0.8,2.8s0.8,3.8,1.8,3
			s1-0.8,1-0.8l3.5,2c0,0,0.5,0.8-0.5,2s-2.8,2.5-2.8,2.5l5.3,2.5l3-1L901.5,429.4z"/>

			<path fill="#FFFFFF" stroke="#000000" stroke-width="0.25" stroke-linecap="round" stroke-linejoin="round" stroke-miterlimit="10" d="
			M879.3,261.4c0,0-1.5-0.5-3.3,0s-3,2-3,2l0.8,17l5.3-0.3L879.3,261.4z"/>

			<path fill="#FFFFFF" stroke="#000000" stroke-width="0.25" stroke-linecap="round" stroke-linejoin="round" stroke-miterlimit="10" d="
			M884.5,293.4h2.3c0,0,2.3,1.5,3,3.5s1.5,4.3,1.5,4.3l2-1.5c0,0-1.3-1.3-0.5-3.5s2.3-3,4.3-2.5s2.8,1.8,3,3.3s-0.8,2.8-0.8,2.8
			s0.8,0.8,1.8,2.3s1.5,4,0.5,5.3s-0.3,1.3-5,1.5s-7.3,0.5-8.3-2.5s-0.5-7-1.5-8.8S884.5,293.4,884.5,293.4z"/>

			<polygon fill="#FFFFFF" stroke="#000000" stroke-width="0.25" stroke-linecap="round" stroke-linejoin="round" stroke-miterlimit="10" points="
			848.3,181.2 857.3,179.7 859.8,625.2 848.3,620.7 		"/>

			<polygon fill="#FFFFFF" stroke="#000000" stroke-width="0.25" stroke-linecap="round" stroke-linejoin="round" stroke-miterlimit="10" points="
			900.8,254.3 883.3,255.6 883.3,243.6 900.8,242.3 		"/>

			<polygon fill="#FFFFFF" stroke="#000000" stroke-width="0.25" stroke-linecap="round" stroke-linejoin="round" stroke-miterlimit="10" points="
			878.4,290.3 860.9,291.6 860.9,279.6 878.4,278.3 		"/>

			<polygon fill="#FFFFFF" stroke="#000000" stroke-width="0.25" stroke-linecap="round" stroke-linejoin="round" stroke-miterlimit="10" points="
			900.8,321.1 883.3,321.6 883.3,309.6 900.8,309.1 		"/>

			<polygon fill="#FFFFFF" stroke="#000000" stroke-width="0.25" stroke-linecap="round" stroke-linejoin="round" stroke-miterlimit="10" points="
			878.4,355.8 860.9,356.3 860.9,344.3 878.4,343.8 		"/>

			<polygon fill="#FFFFFF" stroke="#000000" stroke-width="0.25" stroke-linecap="round" stroke-linejoin="round" stroke-miterlimit="10" points="
			900.8,387.6 883.3,387.8 883.3,375.8 900.8,375.6 		"/>

			<polygon fill="#FFFFFF" stroke="#000000" stroke-width="0.25" stroke-linecap="round" stroke-linejoin="round" stroke-miterlimit="10" points="
			900.8,454.1 883.3,453.3 883.3,441.3 900.8,442.1 		"/>

			<polygon fill="#FFFFFF" stroke="#000000" stroke-width="0.25" stroke-linecap="round" stroke-linejoin="round" stroke-miterlimit="10" points="
			878.4,422.3 860.9,421.6 860.9,409.6 878.4,410.3 		"/>

			<polygon fill="#FFFFFF" stroke="#000000" stroke-width="0.25" stroke-linecap="round" stroke-linejoin="round" stroke-miterlimit="10" points="
			900.8,520.8 882.9,519.7 882.9,507.7 900.8,508.8 		"/>

			<polygon fill="#FFFFFF" stroke="#000000" stroke-width="0.25" stroke-linecap="round" stroke-linejoin="round" stroke-miterlimit="10" points="
			878.8,487.3 860.9,486.2 860.9,474.2 878.8,475.3 		"/>

			<polygon fill="#FFFFFF" stroke="#000000" stroke-width="0.25" stroke-linecap="round" stroke-linejoin="round" stroke-miterlimit="10" points="
			922.4,286.8 904.5,288.1 904.5,275.7 922.4,274.4 		"/>

			<polygon fill="#FFFFFF" stroke="#000000" stroke-width="0.25" stroke-linecap="round" stroke-linejoin="round" stroke-miterlimit="10" points="
			922.4,354.1 904.5,354.6 904.5,342.3 922.4,341.8 		"/>

			<polygon fill="#FFFFFF" stroke="#000000" stroke-width="0.25" stroke-linecap="round" stroke-linejoin="round" stroke-miterlimit="10" points="
			922.4,422.5 904.5,421.7 904.5,409.4 922.4,410.2 		"/>

			<polygon fill="#FFFFFF" stroke="#000000" stroke-width="0.25" stroke-linecap="round" stroke-linejoin="round" stroke-miterlimit="10" points="
			922.8,489.3 904.5,488.2 904.5,475.8 922.8,477 		"/>

			<polygon fill="#FFFFFF" stroke="#000000" stroke-width="0.25" stroke-linecap="round" stroke-linejoin="round" stroke-miterlimit="10" points="
			922.8,556.6 904.5,554.7 904.5,542.3 922.8,544.2 		"/>

			<polygon fill="#FFFFFF" stroke="#000000" stroke-width="0.25" stroke-linecap="round" stroke-linejoin="round" stroke-miterlimit="10" points="
			899.8,628.9 903,629.4 903,185.4 899.8,185.9 		"/>

			<polygon fill="#FFFFFF" stroke="#000000" stroke-width="0.25" stroke-linecap="round" stroke-linejoin="round" stroke-miterlimit="10" points="
			922,628.9 925.3,629.4 925.3,182.7 922,183.2 		"/>

			<polygon fill="#FFFFFF" stroke="#000000" stroke-width="0.25" stroke-linecap="round" stroke-linejoin="round" stroke-miterlimit="10" points="
			878.3,628.9 881.5,629.4 881.5,188.7 877.6,188.8 		"/>

			<path fill="#FFFFFF" stroke="#000000" stroke-width="0.25" stroke-linecap="round" stroke-linejoin="round" stroke-miterlimit="10" d="
			M859.8,193.2c0.5-0.8,0-13.8,0-13.8l75.5-13.5l0.3,17L859.8,193.2z"/>
	</g>
	<g>

			<path fill="#FFFFFF" stroke="#000000" stroke-width="0.25" stroke-linecap="round" stroke-linejoin="round" stroke-miterlimit="10" d="
			M43,823.3c0-2,7.3-342,8-364s8-26.7,8-26.7h42v380l-42,8.7L43,823.3z"/>

			<polygon fill="#FFFFFF" stroke="#000000" stroke-width="0.25" stroke-linecap="round" stroke-linejoin="round" stroke-miterlimit="10" points="
			59,821.3 59,432.6 101,432.6 101,812.6 		"/>

			<rect x="61" y="435.3" fill="#CCCCCC" stroke="#000000" stroke-width="0.25" stroke-linecap="round" stroke-linejoin="round" stroke-miterlimit="10" width="36.7" height="156"/>
	</g>
	<g>

			<path fill="#FFFFFF" stroke="#000000" stroke-width="0.25" stroke-linecap="round" stroke-linejoin="round" stroke-miterlimit="10" d="
			M490.3,731.3c8.9-0.6,354-82.7,356-86.7s0.7-38.7,0.7-41.3s-118.7-22.7-120.7-22.7S373.7,629.9,369,629.3s-4.7,54.7-2.7,58.7
			s94.7,45.3,99.3,46C470.3,734.6,479.7,731.9,490.3,731.3z"/>

			<path fill="#FFFFFF" stroke="#000000" stroke-width="0.25" stroke-linecap="round" stroke-linejoin="round" stroke-miterlimit="10" d="
			M426,648.9c4,3,27,19,30.5,25s8.5,23.5,8.5,23.5s385-77,386.5-78.5s-16-9.5-16-9.5s-115-21.5-117.5-22s-70,9-119,19
			s-162.5,37-167,37.5S422,645.9,426,648.9z"/>
		<path fill="#EEEEEE" d="M467,729.6c0.5-7.4-0.7-46,8-47.3s322.3-72.3,331-72.3s31.3,4.3,32,11c0.7,6.7,9.7,42,2.3,48
			c-7.3,6-308,89.3-324,90c-16,0.7-33.3-10.7-38-14.7C473.7,740.3,466.3,738.9,467,729.6z"/>

			<path fill="#CCCCCC" stroke="#000000" stroke-width="0.25" stroke-linecap="round" stroke-linejoin="round" stroke-miterlimit="10" d="
			M360,548.4c-1.5-0.5,357.5-30,357.5-30l4,67l-358,68.5L360,548.4z"/>

			<path fill="#FFFFFF" stroke="#000000" stroke-width="0.25" stroke-linecap="round" stroke-linejoin="round" stroke-miterlimit="10" d="
			M397,628.6c0,0-0.8-93.4,0-98.4s14.5-12.8,18-13.8s47-0.5,53.8-1.5s51-7,59.3-7.8s45.3-1.5,47.3-2s28.5-5,32-5s24-0.8,25.5-1.3
			s17.8-2,21.3-3s29.5-4.5,32.3-3.5s9.5,11.5,9,13.8s6.5,51,6.5,53.8s7.3,31.3-4.8,34c-12,2.7-262,44.7-278,46.7
			S399.5,636.4,397,628.6z"/>

			<path fill="#FFFFFF" stroke="#000000" stroke-width="0.25" stroke-linecap="round" stroke-linejoin="round" stroke-miterlimit="10" d="
			M727.5,595.9c3.3-1.2-12.5-29-14-34s-4.5-26.5-8.5-31.5s-5-18-8.5-19c-1.9-0.6-8.5,3.5-20.5,2.5c-7.7-0.6-15.6,5.4-18.5,5
			c-6.5-1-7-4.5-17.5-2s-19.5,5.5-22.5,3.5s-0.5-1.5-9.5,0s-13,1.5-18,1.5s-5.5-3-9,5.5s-3,40.5-1.5,50.5s18.5,32.5,20.5,34.5
			s-3.5,5.5,1.5,7s17.5-6,20-7s29,3.5,39,0s30-6,37.5-10.5s15.5-7.5,18.5-7S722,597.9,727.5,595.9z"/>
		<path fill="#EEEEEE" d="M714,586.4c-3-2.5-9.5,4.5-10.5,1.5s6-4,8.5-5s-3.5-9-7.5-11.5s2.5-16.5,3.5-22s-5.5-7-7-8s-3-9.5,0-13.5
			s-4.5-5.5-3.5-10s-7.5-1-7.5-1l-4,4.5c0,0-4.5,0.5-6.5-1s-8-1.5-8.5,3.5s-11.5,0-11.5,0s-5.5-3.5-6-1s-4.5,4-8.5,0.5s-5-0.5-6,3.5
			s-9,4.5-16,1.5s-28-1-32,0.5s8,5.5,4,8.5s-2.5-3.5-7.5,2.5s-6.5,22-6,28.5s11,18,14.5,24c1.4,2.3,0.9,7.9,0,14c2,2.6,3.5,4.5,4,5
			c2,2-3.5,5.5,1.5,7s17.5-6,20-7s29,3.5,39,0s30-6,37.5-10.5s15.5-7.5,18.5-7c0.4,0.1,0.8,0.2,1.2,0.3
			C716.7,591,715.4,587.6,714,586.4z"/>

			<path fill="#FFFFFF" stroke="#000000" stroke-width="0.25" stroke-linecap="round" stroke-linejoin="round" stroke-miterlimit="10" d="
			M519,635.9c20,0,59-6,65.5-9.5s9-6,10.5-7.5s10,2,10.5-3.5s-5.5-13-6.5-16.5s0-26.5-5.5-38s-20-26-20.5-27.5s-1-9.5-5-10.5
			s-12.5,2-15.5,2s-34.5-1-41.5-1s-9,3.5-13.5,3.5s-13-1-24.5,0s-21.5,8-28,6.5s-15.5-4-16-0.5s11,12.5,11,15.5s-4.5,10.5-2,19.5
			s-6.5,43.5,8,60s16.5,13,16.5,17s9.5,0.5,12-2s31-9,33.5-8.5S505.5,635.9,519,635.9z"/>
		<path fill="#EEEEEE" d="M595,617.9c0.5-0.5,1.8-0.4,3.3-0.3c1.1-2.4,1.6-4.5-0.3-5.2c-4.5-1.5-4-9-3.5-13s-2.5-30-12-37
			s-6.5-18-13-20.5s-12-11-15.5-9s-13.5,8.5-18.5,8s-14-3-17.5-4.5s-8.5,1-9,2.5s-5.5,3-8.5,1s-9.5-5-13-6.5s0,2.5-0.5,4
			s-13,8.5-14,7s0-6.5-1.5-7.5s-9,4-9,4s-5.5,0.5-7-1.5s-8,2.5-11,1.5s-9-3.5-6.5-1s12,13,13.5,14.5s-7,10-7.5,13s-2,14-2.5,16.5
			c-0.3,1.3-2.4,10.2-3.7,20.1c0.7,8.8,2.9,17.3,8.2,23.4c14.5,16.5,16.5,13,16.5,17s9.5,0.5,12-2s31-9,33.5-8.5s-2.5,1,11,1
			c20,0,59-6,65.5-9.5S593.5,619.4,595,617.9z"/>

			<path fill="#FFFFFF" stroke="#000000" stroke-width="0.25" stroke-linecap="round" stroke-linejoin="round" stroke-miterlimit="10" d="
			M701,519.7c9.9-0.8,16.5-1.3,16.5-1.3l3.5,59.2l2,5c0,0,0,3.1,2.7,3.6c21.5,4,118.5,22.2,119.8,22.2c1.5,0,27.5-5,29-8
			s1.5-49.5,1.5-49.5s1.5-24.5-4.5-24.5s-149-12.5-151.5-12c-0.3,0.1-7.8,0.7-20.5,1.7L701,519.7z"/>

			<path fill="#FFFFFF" stroke="#000000" stroke-width="0.25" stroke-linecap="round" stroke-linejoin="round" stroke-miterlimit="10" d="
			M396.7,539.9c-69.9,5.4-91,6.8-92.7,7c-4.5,0.5-8,1-8,5s1.5,148.5,3,150.5s119.5,66.5,127,65.5s82.5-18.5,83.5-23
			s0.9-65.8-1.5-75.5c-2.5-10-24.5-99.5-31.5-101c-1.3-0.3-20.4-3.7-28-5c-34.4-5.9-82.5-13-88.5-15c-0.4-0.1,23.7-2,36.7-3.5V539.9
			z"/>

			<path fill="#FFFFFF" stroke="#000000" stroke-width="0.25" stroke-linecap="round" stroke-linejoin="round" stroke-miterlimit="10" d="
			M879.5,642.9c0.5-6.5,0-104,0-109.5s-3.5-6-10.5-5s-9-0.5-12,7s-16,89-16.5,92.5s-4,27,2,27.5s36-5.5,37-7
			S879.5,642.9,879.5,642.9z"/>

			<path fill="none" stroke="#000000" stroke-width="0.25" stroke-linecap="round" stroke-linejoin="round" stroke-miterlimit="10" d="
			M447.5,751.9c-1-1.5-0.5-168.5-0.5-170.5s24.5-11.5,28.5-10"/>

			<path fill="none" stroke="#000000" stroke-width="0.25" stroke-linecap="round" stroke-linejoin="round" stroke-miterlimit="10" d="
			M304,552.9c1.5,0,138.5,28.5,138.5,28.5"/>

			<path fill="none" stroke="#000000" stroke-width="0.25" stroke-linecap="round" stroke-linejoin="round" stroke-miterlimit="10" d="
			M723,519.9c3.5-0.5,132.5,12.5,132.5,12.5"/>
	</g>
	<g>

			<path fill="#FFFFFF" stroke="#000000" stroke-width="0.25" stroke-linecap="round" stroke-linejoin="round" stroke-miterlimit="10" d="
			M1044,510.1c-0.4-0.1,0.5-6.8,2.3-8.4s6.9-7.3,7.3-8.8s0.1-4.4,0.1-4.4s0.1,3.3-1.8,5.1s-7.1,4.9-8.3,7.4s-1.3,10.1-1.3,10.1
			L1044,510.1z"/>

			<path fill="#FFFFFF" stroke="#000000" stroke-width="0.25" stroke-linecap="round" stroke-linejoin="round" stroke-miterlimit="10" d="
			M1018.4,555.6c0.4-0.9-4.7-4.1-11.5-7.2c-6.7-3-12.5-4.8-12.9-3.8c0,0-4.5,19-6.7,36.4c-2.2,16.7-1.8,27.1-1.6,31.3
			c0.3,4.2,1.9,26.7,6.1,33.9c3,5.2,21,5.5,25,0.8s5.5-23.8,5.7-34.7c0.2-10.9-0.2-20.2-1.1-32.9
			C1020.2,563.7,1018.4,555.6,1018.4,555.6z"/>

			<path fill="#FFFFFF" stroke="#000000" stroke-width="0.25" stroke-linecap="round" stroke-linejoin="round" stroke-miterlimit="10" d="
			M993.3,633.2c0,0,2.3-6,3-10.3c0.7-4.3,1.7-8.7,1.7-8.7h2.3c0,0-0.3,5.7-1,9.3c-0.7,3.7-2.7,10.3-2.7,10.3L993.3,633.2z"/>

			<ellipse fill="#FFFFFF" stroke="#000000" stroke-width="0.25" stroke-linecap="round" stroke-linejoin="round" stroke-miterlimit="10" cx="1004" cy="612.3" rx="18.4" ry="2.7"/>

			<path fill="#FFFFFF" stroke="#000000" stroke-width="0.25" stroke-linecap="round" stroke-linejoin="round" stroke-miterlimit="10" d="
			M1010.8,564.1c0-0.4,6-16.8,11.9-18s3,7.9,1.9,11.1c-1,2.8,2.4,11.4,3.8,15.8s-2.3,10.6-2.3,10.6s4.6-6.6,3.1-10.4
			s-5.4-13-3.9-16.8s3.4-14.6-2.8-11.4s-8.3,8.1-8.3,8.1L1010.8,564.1z"/>

			<path fill="#FFFFFF" stroke="#000000" stroke-width="0.25" stroke-linecap="round" stroke-linejoin="round" stroke-miterlimit="10" d="
			M1029.6,527.9c-0.3-0.1,3.3-7.1,11.4-8s8.5,5.6,7,8s-2.9,3.1-5.1,2.5s-3.3-2.4-3.3-2.4s1.8,1.9,3.5,1.9s3.4,0.1,4.5-2.4
			s-0.5-7.9-6.4-7c-9.3,1.5-12.6,10.8-12.5,10.4S1029.6,527.9,1029.6,527.9z"/>

			<path fill="#FFFFFF" stroke="#000000" stroke-width="0.25" stroke-linecap="round" stroke-linejoin="round" stroke-miterlimit="10" d="
			M1013,560.8c0,0,1.9-7.4,8.5-10.8c5.1-2.6,6.8,1.1,7.9,5.1s-2.1,12.4-4.6,16.8s2.6,6,2.6,6s-4.1-2.4-2-5.6s6.6-13.3,5.4-18.1
			s-4.6-7.4-10.4-4.4c-4.7,2.5-5.5,5.1-5.5,5.1L1013,560.8z"/>

			<path fill="#FFFFFF" stroke="#000000" stroke-width="0.25" stroke-linecap="round" stroke-linejoin="round" stroke-miterlimit="10" d="
			M1011.8,563.9c0-0.3,5.8-10.1,11.1-11.3c5.4-1.3,10.2,1,12.2,5.9c1.8,4.5-0.9,17.2-2.6,20.4s0.1,10.8-0.1,10.5
			c-0.2-0.3-0.9-7.4,0.6-10.5c1.5-3.1,5.1-14.4,2.8-21.1c-1.9-5.3-8.4-8.2-13.4-6.3c-5,1.8-9.5,8.8-9.5,8.8L1011.8,563.9z"/>

			<path fill="#FFFFFF" stroke="#000000" stroke-width="0.25" stroke-linecap="round" stroke-linejoin="round" stroke-miterlimit="10" d="
			M1006.1,585.8c0,0,1.9-18.8,2.6-21.8c0.7-2.9,5.5-10.7,5.8-15.8c0.3-5.2-6.8-19.3-6.8-19.3s7.2,10.2,7.5,17.9
			c0.3,7.8-3.1,15-3.8,18s-3.6,14.7-3.5,16.1C1007.9,582.3,1006.1,585.8,1006.1,585.8z"/>

			<path fill="#FFFFFF" stroke="#000000" stroke-width="0.25" stroke-linecap="round" stroke-linejoin="round" stroke-miterlimit="10" d="
			M1035.9,516.1c0.1-0.6,4.4-5,4.5-9.8s0.9-7,3.1-8.8s9.9-1.8,11.8-3.5s1.9-3.5,1.9-3.5s0.1,4.1-3,5.9s-7.5,2.1-9.6,5.5
			s-1.1,5.3-2.3,7.6S1035.9,516.1,1035.9,516.1z"/>

			<path fill="#FFFFFF" stroke="#000000" stroke-width="0.25" stroke-linecap="round" stroke-linejoin="round" stroke-miterlimit="10" d="
			M999.5,611.9c0,0,1-9.6,1.7-11.6c0.7-2,5.5-17.5,6-21.2c0.5-3.7,5.8-23.2,7.8-27.7s12.2-20.5,14.7-25.7s7-13.5,8.2-14.7
			c1.2-1.2,3.8-5.2,11-8.3c7.2-3.2,9.3-2.7,12.7-4.5s6.3-4,6.3-4s-5.7,8-14.2,13.3s-14.7,6.7-17.3,10.2c-2.7,3.5-4.2,8-5,9.8
			c-0.8,1.8-13.7,22-14.7,25.3c-1,3.3-7.5,23.8-7.5,26.8s-5.1,19.3-5.6,21.4c-0.5,2.2-1.4,10.8-1.4,10.8s-0.3,0.8-1.4,0.7
			C999.6,612.5,999.5,611.9,999.5,611.9z"/>

			<ellipse transform="matrix(0.9117 0.4108 -0.4108 0.9117 314.7554 -364.7433)" fill="none" stroke="#000000" stroke-width="0.25" stroke-linecap="round" stroke-linejoin="round" stroke-miterlimit="10" cx="1006.2" cy="550.1" rx="13.4" ry="1.8"/>
	</g>
	<g>
		<g>

				<polygon fill="#FFFFFF" stroke="#000000" stroke-width="0.25" stroke-linecap="round" stroke-linejoin="round" stroke-miterlimit="10" points="
				1075.8,650.3 1083.8,663 1091.3,663.8 1084.2,651.4 			"/>

				<polygon fill="#FFFFFF" stroke="#000000" stroke-width="0.25" stroke-linecap="round" stroke-linejoin="round" stroke-miterlimit="10" points="
				1096.3,622.5 1075.6,670.4 1067.3,669.3 1087.5,622.3 			"/>

				<polygon fill="#FFFFFF" stroke="#000000" stroke-width="0.25" stroke-linecap="round" stroke-linejoin="round" stroke-miterlimit="10" points="
				1060.3,624.1 1075.8,650.3 1084.1,651.4 1069.5,625.2 			"/>
		</g>
		<g>

				<polygon fill="#FFFFFF" stroke="#000000" stroke-width="0.25" stroke-linecap="round" stroke-linejoin="round" stroke-miterlimit="10" points="
				1293.1,678.1 1301.6,691.8 1309.7,692.6 1302.1,679.3 			"/>

				<polygon fill="#FFFFFF" stroke="#000000" stroke-width="0.25" stroke-linecap="round" stroke-linejoin="round" stroke-miterlimit="10" points="
				1315,648.3 1292.8,699.7 1283.9,698.5 1305.6,648.1 			"/>

				<polygon fill="#FFFFFF" stroke="#000000" stroke-width="0.25" stroke-linecap="round" stroke-linejoin="round" stroke-miterlimit="10" points="
				1276.3,650 1293.1,678.1 1301.9,679.3 1286.3,651.2 			"/>
		</g>

			<polygon fill="#CCCCCC" stroke="#000000" stroke-width="0.25" stroke-linecap="round" stroke-linejoin="round" stroke-miterlimit="10" points="
			1050.8,623.4 1085.8,609.2 1340.5,635.8 1305,653.2 		"/>

			<polygon fill="#CCCCCC" stroke="#000000" stroke-width="0.25" stroke-linecap="round" stroke-linejoin="round" stroke-miterlimit="10" points="
			1050.8,623.5 1085.8,609.2 1086.3,574 1050.8,580.1 		"/>

			<polygon fill="#FFFFFF" stroke="#000000" stroke-width="0.25" stroke-linecap="round" stroke-linejoin="round" stroke-miterlimit="10" points="
			1050.8,626.4 1036,624.7 1036,578.7 1050.8,580.1 		"/>

			<polygon fill="#FFFFFF" stroke="#000000" stroke-width="0.25" stroke-linecap="round" stroke-linejoin="round" stroke-miterlimit="10" points="
			1340.5,590.7 1074.2,569.3 1036,578.7 1305,604.4 		"/>

			<polygon fill="#FFFFFF" stroke="#000000" stroke-width="0.25" stroke-linecap="round" stroke-linejoin="round" stroke-miterlimit="10" points="
			1340.5,590.7 1340.5,637.4 1305,656.2 1305,604.4 		"/>

			<polygon fill="#FFFFFF" stroke="#000000" stroke-width="0.25" stroke-linecap="round" stroke-linejoin="round" stroke-miterlimit="10" points="
			1281.8,602.2 1281.8,653.7 1305,656.2 1305,604.4 		"/>

			<polygon fill="#FFFFFF" stroke="#000000" stroke-width="0.25" stroke-linecap="round" stroke-linejoin="round" stroke-miterlimit="10" points="
			1305,607.4 1036,581.7 1036,578.7 1305,604.4 		"/>

			<polygon fill="#FFFFFF" stroke="#000000" stroke-width="0.25" stroke-linecap="round" stroke-linejoin="round" stroke-miterlimit="10" points="
			1305,656.2 1036,624.7 1036,621.7 1305,653.2 		"/>
	</g>
	<g>

			<path fill="#FFFFFF" stroke="#000000" stroke-width="0.25" stroke-linecap="round" stroke-linejoin="round" stroke-miterlimit="10" d="
			M1092.7,555c-0.4-0.6-2.1-0.3-6.4-0.4s-5.5,0.3-5.8,0.3s-0.6,0.7-0.6,1.7s0,13.9,0,16.4s0.4,2.9,0.4,2.9c0,0.6,2.7,1.1,6.1,1.1
			c2.9,0,5.3-0.4,5.9-0.9c0,0,0,0,0,0c0.4-0.1,0.9-2.5,0.9-3.5s0-14.1,0-15.1S1093,555.4,1092.7,555z"/>

			<path fill="none" stroke="#000000" stroke-width="0.25" stroke-linecap="round" stroke-linejoin="round" stroke-miterlimit="10" d="
			M1086.2,576c-3.4,0-6.1-0.5-6.1-1.1"/>

			<path fill="none" stroke="#000000" stroke-width="0.25" stroke-linecap="round" stroke-linejoin="round" stroke-miterlimit="10" d="
			M1086.1,557.1c-3.4,0-6.1-0.5-6.1-1.1"/>

			<ellipse fill="#FFFFFF" stroke="#000000" stroke-width="0.25" stroke-linecap="round" stroke-linejoin="round" stroke-miterlimit="10" cx="1086.5" cy="555.1" rx="6.1" ry="1.1"/>
	</g>

		<polygon fill="#FFFFFF" stroke="#000000" stroke-width="0.25" stroke-linecap="round" stroke-linejoin="round" stroke-miterlimit="10" points="
		1174.5,586.7 1088.8,579 1088.8,564.1 1174.5,570.3 	"/>

		<polygon fill="#FFFFFF" stroke="#000000" stroke-width="0.25" stroke-linecap="round" stroke-linejoin="round" stroke-miterlimit="10" points="
		1131,577.2 1092.9,573.8 1092.9,567.1 1131,569.9 	"/>

		<polygon fill="#FFFFFF" stroke="#000000" stroke-width="0.25" stroke-linecap="round" stroke-linejoin="round" stroke-miterlimit="10" points="
		1174.5,586.7 1206.5,577.1 1206.5,562.7 1174.5,570.3 	"/>

		<polygon fill="#FFFFFF" stroke="#000000" stroke-width="0.25" stroke-linecap="round" stroke-linejoin="round" stroke-miterlimit="10" points="
		1088.8,564.1 1128.9,557.4 1206.5,562.7 1174.5,570.3 	"/>

		<path fill="#CCCCCC" stroke="#000000" stroke-width="0.25" stroke-linecap="round" stroke-linejoin="round" stroke-miterlimit="10" d="
		M1346.7,590.6c0,0-15,4.3-20,7.3s-4,7.7-4,17.7s0,98.3,0,98.3l82.3,12l24-11.3V595.3L1346.7,590.6z"/>

		<polygon fill="#FFFFFF" stroke="#000000" stroke-width="0.25" stroke-linecap="round" stroke-linejoin="round" stroke-miterlimit="10" points="
		1580.8,440.5 1378,440.2 1376.8,293.8 1580.5,279.7 	"/>

		<polygon fill="#FFFFFF" stroke="#000000" stroke-width="0.25" stroke-linecap="round" stroke-linejoin="round" stroke-miterlimit="10" points="
		1580.8,440.5 1582.6,439.2 1581.4,283.3 1580.5,279.7 	"/>

		<polygon fill="#FFFFFF" stroke="#000000" stroke-width="0.25" stroke-linecap="round" stroke-linejoin="round" stroke-miterlimit="10" points="
		1568,429.9 1386.1,429.6 1385,301.7 1567.8,290.4 	"/>

		<polygon fill="#FFFFFF" stroke="#000000" stroke-width="0.25" stroke-linecap="round" stroke-linejoin="round" stroke-miterlimit="10" points="
		1095.7,457.3 1106.3,461.6 1330.7,465.6 1333,458.9 	"/>

		<polygon fill="#FFFFFF" stroke="#000000" stroke-width="0.25" stroke-linecap="round" stroke-linejoin="round" stroke-miterlimit="10" points="
		1336,462.9 1086,459.3 1082.7,312.3 1334.3,293.9 	"/>

		<polygon fill="#FFFFFF" stroke="#000000" stroke-width="0.25" stroke-linecap="round" stroke-linejoin="round" stroke-miterlimit="10" points="
		1336,462.9 1340,462.3 1337.9,296.7 1334.3,293.9 	"/>

		<polygon fill="#FFFFFF" stroke="#000000" stroke-width="0.25" stroke-linecap="round" stroke-linejoin="round" stroke-miterlimit="10" points="
		1329.3,456.6 1091.3,453.9 1088,316.6 1327.7,299.6 	"/>

		<polygon fill="#CCCCCC" stroke="#000000" stroke-width="0.25" stroke-linecap="round" stroke-linejoin="round" stroke-miterlimit="10" points="
		1329.3,456.6 1092.6,454 1089.3,317.8 1327.7,300.9 	"/>
	<g>

			<path fill="#FFFFFF" stroke="#000000" stroke-width="0.25" stroke-linecap="round" stroke-linejoin="round" stroke-miterlimit="10" d="
			M1556.5,735.9c0,4.8-18.4,8.8-41,8.8s-41-3.9-41-8.8c0-1.3-0.9-8.4,5.5-12.3c11.7-7.1,19,3.5,35.5,3.5c15.8,0,32.2-7.3,37.3-1.9
			C1555.8,728.6,1556.5,731.9,1556.5,735.9z"/>

			<ellipse fill="#FFFFFF" stroke="#000000" stroke-width="0.25" stroke-linecap="round" stroke-linejoin="round" stroke-miterlimit="10" cx="1515.4" cy="726.7" rx="37.9" ry="8.8"/>

			<polygon fill="#FFFFFF" stroke="#000000" stroke-width="0.25" stroke-linecap="round" stroke-linejoin="round" stroke-miterlimit="10" points="
			1527.1,729.6 1492.8,724.2 1492.8,432.7 1526.5,432.7 		"/>

			<polygon fill="#CCCCCC" stroke="#000000" stroke-width="0.25" stroke-linecap="round" stroke-linejoin="round" stroke-miterlimit="10" points="
			1523.3,434.6 1494.3,434.6 1494.3,556.6 1523.3,558.6 		"/>

			<path fill="#FFFFFF" stroke="#000000" stroke-width="0.25" stroke-linecap="round" stroke-linejoin="round" stroke-miterlimit="10" d="
			M1527.1,729.6l7.9-2.9c0,0-5-225-6.5-282.5c-0.3-9.8-2-11.5-2-11.5L1527.1,729.6z"/>
	</g>

		<path fill="#FFFFFF" stroke="#000000" stroke-width="0.25" stroke-linecap="round" stroke-linejoin="round" stroke-miterlimit="10" d="
		M1429,714.6V595.3c0,0-15,7-20,10s-4,7.7-4,17.7s0,103,0,103L1429,714.6z"/>

		<ellipse fill="#FFFFFF" stroke="#000000" stroke-width="0.25" stroke-linecap="round" stroke-linejoin="round" stroke-miterlimit="10" cx="1361.7" cy="631.6" rx="16.7" ry="15"/>

		<ellipse fill="#CCCCCC" stroke="#000000" stroke-width="0.25" stroke-linecap="round" stroke-linejoin="round" stroke-miterlimit="10" cx="1363.2" cy="630.9" rx="12.5" ry="11.3"/>

		<path fill="#CCCCCC" stroke="#000000" stroke-width="0.25" stroke-linecap="round" stroke-linejoin="round" stroke-miterlimit="10" d="
		M1330.7,600.9c0,0,64.2,4.8,68.6,5.1c4.4,0.3,5,3.9-0.3,4c-5.4,0.1-62.2-5.8-68.3-6C1324.6,603.7,1326.3,600.6,1330.7,600.9z"/>
	<g>

			<polygon fill="#FFFFFF" stroke="#000000" stroke-width="0.25" stroke-linecap="round" stroke-linejoin="round" stroke-miterlimit="10" points="
			1131.3,510.6 1268.7,517.6 1281.8,511.9 1144.8,505.6 		"/>

			<polygon fill="#FFFFFF" stroke="#000000" stroke-width="0.25" stroke-linecap="round" stroke-linejoin="round" stroke-miterlimit="10" points="
			1131.3,510.6 1268.7,517.6 1268.7,533.3 1131.3,525.3 		"/>

			<path fill="#FFFFFF" stroke="#000000" stroke-width="0.25" stroke-linecap="round" stroke-linejoin="round" stroke-miterlimit="10" d="
			M1152,500.8v7.6c0,0.5,0.8,0.9,1.7,0.9c0.9,0,1.7-0.4,1.7-0.9v-7.6H1152z"/>

			<path fill="#FFFFFF" stroke="#000000" stroke-width="0.25" stroke-linecap="round" stroke-linejoin="round" stroke-miterlimit="10" d="
			M1242.6,504.8v8.3c0,0.6,0.8,1,1.9,1c1,0,1.8-0.4,1.8-1v-8.3H1242.6z"/>

			<polygon fill="#CCCCCC" stroke="#000000" stroke-width="0.25" stroke-linecap="round" stroke-linejoin="round" stroke-miterlimit="10" points="
			1267.3,511.9 1135.3,506.3 1134.3,476.9 1266.3,479.3 		"/>

			<polygon fill="#FFFFFF" stroke="#000000" stroke-width="0.25" stroke-linecap="round" stroke-linejoin="round" stroke-miterlimit="10" points="
			1267.3,511.9 1270.3,510.4 1269.5,479.9 1266.3,479.3 		"/>

			<polygon fill="#FFFFFF" stroke="#000000" stroke-width="0.25" stroke-linecap="round" stroke-linejoin="round" stroke-miterlimit="10" points="
			1281.8,511.9 1268.7,517.6 1268.7,533.3 1282,526.1 		"/>
	</g>
	<g>

			<polygon fill="#FFFFFF" stroke="#000000" stroke-width="0.25" stroke-linecap="round" stroke-linejoin="round" stroke-miterlimit="10" points="
			1283.7,595.9 1186.7,587.3 1186.7,554.6 1283.7,560.8 		"/>

			<polygon fill="#FFFFFF" stroke="#000000" stroke-width="0.25" stroke-linecap="round" stroke-linejoin="round" stroke-miterlimit="10" points="
			1283.7,595.9 1312.2,585.8 1312.2,552.8 1283.7,560.8 		"/>

			<polygon fill="#CCCCCC" stroke="#000000" stroke-width="0.25" stroke-linecap="round" stroke-linejoin="round" stroke-miterlimit="10" points="
			1283.7,595.9 1186.7,587.3 1186.7,570.4 1283.7,577.4 		"/>

			<path fill="#FFFFFF" stroke="#000000" stroke-width="0.25" stroke-linecap="round" stroke-linejoin="round" stroke-miterlimit="10" d="
			M1274.5,568.5c0,3.1-2.4,5.6-5.3,5.4s-5.3-2.8-5.3-5.9c0-3.1,2.4-5.6,5.3-5.4C1272.1,562.7,1274.5,565.4,1274.5,568.5z"/>

			<path fill="#FFFFFF" stroke="#000000" stroke-width="0.25" stroke-linecap="round" stroke-linejoin="round" stroke-miterlimit="10" d="
			M1272.6,568.6c0,2.3-1.7,4.1-3.9,4s-3.9-2.1-3.9-4.4s1.7-4.1,3.9-4S1272.6,566.3,1272.6,568.6z"/>

			<polygon fill="#FFFFFF" stroke="#000000" stroke-width="0.25" stroke-linecap="round" stroke-linejoin="round" stroke-miterlimit="10" points="
			1186.7,554.6 1219.8,547.3 1312.2,552.8 1283.7,560.8 		"/>
	</g>
	<g>

			<polygon fill="#CCCCCC" stroke="#000000" stroke-width="0.25" stroke-linecap="round" stroke-linejoin="round" stroke-miterlimit="10" points="
			1166.4,631.5 1111,624.6 1111,615 1166.4,620.8 		"/>

			<polygon fill="#FFFFFF" stroke="#000000" stroke-width="0.25" stroke-linecap="round" stroke-linejoin="round" stroke-miterlimit="10" points="
			1166.4,631.5 1184.5,621.9 1184.5,612.5 1166.4,620.8 		"/>

			<polygon fill="#FFFFFF" stroke="#000000" stroke-width="0.25" stroke-linecap="round" stroke-linejoin="round" stroke-miterlimit="10" points="
			1111,615 1131.3,607.8 1184.5,612.5 1166.4,620.8 		"/>
	</g>
	<g>

			<path fill="#CCCCCC" stroke="#000000" stroke-width="0.25" stroke-linecap="round" stroke-linejoin="round" stroke-miterlimit="10" d="
			M1228.8,637.5c-0.5,0.4-2.6,0.1-6.6-0.3c-9.2-1.1-25.3-2.8-25.3-2.8c-6.9-2.3-4.3-7-4.3-7c0-1.2,9.1-6.3,10.8-7.3
			c1.3-0.8,2.4-1.3,3.7-1.2l30.3,2.8c2.5,0.3,4.5,2.5,4.5,5l0,0c0,1.3-0.6,2.5-1.5,3.2C1239.6,630.6,1230.6,636.3,1228.8,637.5z"/>

			<path fill="#CCCCCC" stroke="#000000" stroke-width="0.25" stroke-linecap="round" stroke-linejoin="round" stroke-miterlimit="10" d="
			M1226.5,638l-30.3-3.3c-2.5-0.3-4.5-2.5-4.5-5l0,0c0-2.5,2-4.3,4.5-4l30.3,3.3c2.5,0.3,4.5,2.5,4.5,5l0,0
			C1231,636.4,1229,638.2,1226.5,638z"/>
	</g>
	<g>
		<g>

				<polygon fill="#FFFFFF" stroke="#000000" stroke-width="0.25" stroke-linecap="round" stroke-linejoin="round" stroke-miterlimit="10" points="
				1087,624.8 1065.7,621 1065.7,619.6 1087,623.3 			"/>

				<polygon fill="#FFFFFF" stroke="#000000" stroke-width="0.25" stroke-linecap="round" stroke-linejoin="round" stroke-miterlimit="10" points="
				1087,624.8 1098.9,616.6 1098.9,615.5 1087,623.3 			"/>

				<polygon fill="#FFFFFF" stroke="#000000" stroke-width="0.25" stroke-linecap="round" stroke-linejoin="round" stroke-miterlimit="10" points="
				1065.7,619.6 1079.1,613.3 1098.9,615.5 1087,623.3 			"/>
		</g>
		<g>

				<polygon fill="#FFFFFF" stroke="#000000" stroke-width="0.25" stroke-linecap="round" stroke-linejoin="round" stroke-miterlimit="10" points="
				1089.2,622.7 1067.9,619.4 1067.9,618.1 1089.1,621.2 			"/>

				<polygon fill="#FFFFFF" stroke="#000000" stroke-width="0.25" stroke-linecap="round" stroke-linejoin="round" stroke-miterlimit="10" points="
				1089.2,622.7 1100.3,614.3 1100.2,613.2 1089.1,621.2 			"/>

				<polygon fill="#FFFFFF" stroke="#000000" stroke-width="0.25" stroke-linecap="round" stroke-linejoin="round" stroke-miterlimit="10" points="
				1067.9,618.1 1080.5,611.1 1100.2,613.2 1089.1,621.2 			"/>
		</g>
		<g>

				<polygon fill="#FFFFFF" stroke="#000000" stroke-width="0.25" stroke-linecap="round" stroke-linejoin="round" stroke-miterlimit="10" points="
				1087.1,621.3 1067.6,617.1 1067.5,615.7 1087,619.8 			"/>

				<polygon fill="#FFFFFF" stroke="#000000" stroke-width="0.25" stroke-linecap="round" stroke-linejoin="round" stroke-miterlimit="10" points="
				1087.1,621.3 1098.5,613.5 1098.5,612.4 1087,619.8 			"/>

				<polygon fill="#FFFFFF" stroke="#000000" stroke-width="0.25" stroke-linecap="round" stroke-linejoin="round" stroke-miterlimit="10" points="
				1067.5,615.7 1080.7,609.7 1098.5,612.4 1087,619.8 			"/>
		</g>
		<g>

				<polygon fill="#FFFFFF" stroke="#000000" stroke-width="0.25" stroke-linecap="round" stroke-linejoin="round" stroke-miterlimit="10" points="
				1088.8,618.9 1067.5,615 1067.4,613.7 1088.7,617.4 			"/>

				<polygon fill="#FFFFFF" stroke="#000000" stroke-width="0.25" stroke-linecap="round" stroke-linejoin="round" stroke-miterlimit="10" points="
				1088.8,618.9 1100.7,611.1 1100.7,610 1088.7,617.4 			"/>

				<polygon fill="#FFFFFF" stroke="#000000" stroke-width="0.25" stroke-linecap="round" stroke-linejoin="round" stroke-miterlimit="10" points="
				1067.4,613.7 1080.9,607.7 1100.7,610 1088.7,617.4 			"/>
		</g>
		<g>

				<polygon fill="#FFFFFF" stroke="#000000" stroke-width="0.25" stroke-linecap="round" stroke-linejoin="round" stroke-miterlimit="10" points="
				1086.3,617.3 1064.4,613.9 1064.4,612.5 1086.3,615.8 			"/>

				<polygon fill="#FFFFFF" stroke="#000000" stroke-width="0.25" stroke-linecap="round" stroke-linejoin="round" stroke-miterlimit="10" points="
				1086.3,617.3 1097.8,610.2 1097.7,608.6 1086.3,615.8 			"/>

				<polygon fill="#FFFFFF" stroke="#000000" stroke-width="0.25" stroke-linecap="round" stroke-linejoin="round" stroke-miterlimit="10" points="
				1064.4,612.5 1078.9,606.5 1097.7,608.6 1086.3,615.8 			"/>
		</g>
	</g>
	<g>

			<polygon fill="#FFFFFF" stroke="#000000" stroke-width="0.25" stroke-linecap="round" stroke-linejoin="round" stroke-miterlimit="10" points="
			1063.6,580.5 1041.7,576.9 1041.6,575.3 1063.5,578.7 		"/>

			<polygon fill="#FFFFFF" stroke="#000000" stroke-width="0.25" stroke-linecap="round" stroke-linejoin="round" stroke-miterlimit="10" points="
			1063.6,580.5 1078.5,575 1078.4,573.6 1063.5,578.7 		"/>

			<polygon fill="#FFFFFF" stroke="#000000" stroke-width="0.25" stroke-linecap="round" stroke-linejoin="round" stroke-miterlimit="10" points="
			1041.6,575.3 1060.7,571.3 1078.4,573.6 1063.5,578.7 		"/>
	</g>
	<g>

			<polygon fill="#FFFFFF" stroke="#000000" stroke-width="0.25" stroke-linecap="round" stroke-linejoin="round" stroke-miterlimit="10" points="
			1063.7,578.2 1040.3,575.3 1040.2,573.7 1063.7,576.4 		"/>

			<polygon fill="#FFFFFF" stroke="#000000" stroke-width="0.25" stroke-linecap="round" stroke-linejoin="round" stroke-miterlimit="10" points="
			1063.7,578.2 1076.3,573.2 1076.3,571.4 1063.7,576.4 		"/>

			<polygon fill="#FFFFFF" stroke="#000000" stroke-width="0.25" stroke-linecap="round" stroke-linejoin="round" stroke-miterlimit="10" points="
			1040.2,573.7 1058.1,569.3 1076.3,571.4 1063.7,576.4 		"/>
	</g>
	<g>

			<path fill="#FFFFFF" stroke="#000000" stroke-width="0.25" stroke-linecap="round" stroke-linejoin="round" stroke-miterlimit="10" d="
			M1305.8,589.9c0.5-2.5,1.8-9.4,2.8-13.6c1.3-5.7,2-7.6,3.6-7.8c1.4-0.1,15.9,1.3,17,1.3s0.5,19.5,0.9,21.8c0.2,1.1-7.1,4.1-8.6,4
			c-3.5-0.3-12.6-1.6-14.1-1.9C1304.9,593.3,1305.1,592.8,1305.8,589.9z"/>

			<path fill="#FFFFFF" stroke="#000000" stroke-width="0.25" stroke-linecap="round" stroke-linejoin="round" stroke-miterlimit="10" d="
			M1312.5,570.1c0,0-2.3,10.8-2.8,13.9c-0.3,1.6-1,5.1-0.3,5.8s8.4,1.3,9.4,1.3s1.5-0.8,1.5-0.8s1.8-15,2-17.3s0.8-2.8-0.4-3
			c-1.7-0.4-3.4-0.4-4.6-0.6C1316.7,569.3,1313,568.9,1312.5,570.1z"/>

			<path fill="#FFFFFF" stroke="#000000" stroke-width="0.25" stroke-linecap="round" stroke-linejoin="round" stroke-miterlimit="10" d="
			M1315.4,556.8c-0.5,1.9-5,29.7-5,31.4c0,1.7,2.5,1.4,4.3,1.6s5.8,0.4,5.8,0.4s2.9-15.1,3-16.4s0.8-2.1,1-2.9s1.7-13,1.9-13.8
			c0.4-1.9-3.1-2.1-6.3-2.4C1317.7,554.6,1315.8,555.3,1315.4,556.8z"/>

			<path fill="#CCCCCC" stroke="#000000" stroke-width="0.25" stroke-linecap="round" stroke-linejoin="round" stroke-miterlimit="10" d="
			M1315.2,562.5c0,0,0.3-0.8,3.6-0.6c3,0.2,4.3,0.8,4.2,1.1s-0.5,4.3-0.6,4.4s-2.6-0.5-4.2-0.6s-3.4,0-3.5-0.3
			S1315.2,562.5,1315.2,562.5z"/>

			<ellipse fill="#FFFFFF" stroke="#000000" stroke-width="0.25" stroke-linecap="round" stroke-linejoin="round" stroke-miterlimit="10" cx="1319.4" cy="558.7" rx="1.4" ry="1.2"/>
	</g>
	<g>

			<path fill="#FFFFFF" stroke="#000000" stroke-width="0.25" stroke-linecap="round" stroke-linejoin="round" stroke-miterlimit="10" d="
			M1145.4,566.5c-1.3-0.7-1-1.5-0.6-2.3c0.4-0.8,4-3.1,8.7-5.3c4.7-2.2,5.3-2.3,6.6-2.3c1.3,0,6,0.8,6.4,1.1s0.5,2.6,0.1,3.1
			c-0.4,0.5-14.4,6.5-16,6.8C1149.4,567.9,1146.3,567,1145.4,566.5z"/>

			<path fill="none" stroke="#000000" stroke-width="0.25" stroke-linecap="round" stroke-linejoin="round" stroke-miterlimit="10" d="
			M1151.5,565.4c0,0,0.3-0.1,1.6-0.8c1.3-0.7,11.4-5.4,11.4-5.4"/>
	</g>
	<g>

			<polygon fill="#FFFFFF" stroke="#000000" stroke-width="0.25" stroke-linecap="round" stroke-linejoin="round" stroke-miterlimit="10" points="
			964.5,300.4 1065.5,294.4 1066,437.4 964.5,434.6 		"/>

			<polygon fill="#FFFFFF" stroke="#000000" stroke-width="0.25" stroke-linecap="round" stroke-linejoin="round" stroke-miterlimit="10" points="
			1073.2,296.6 1065.5,294.4 1066,437.4 1073.2,436.1 		"/>

			<polygon fill="#FFFFFF" stroke="#000000" stroke-width="0.25" stroke-linecap="round" stroke-linejoin="round" stroke-miterlimit="10" points="
			967,304.9 966.5,430.9 1061.5,432.9 1060,298.9 		"/>
	</g>
	<g>

			<path fill="#FFFFFF" stroke="#000000" stroke-width="0.25" stroke-linecap="round" stroke-linejoin="round" stroke-miterlimit="10" d="
			M973.8,653.1c0,4-15.1,7.2-33.7,7.2c-18.6,0-33.7-3.2-33.7-7.2c0-1.1-0.7-6.9,4.5-10.1c9.6-5.9,15.6,2.9,29.2,2.9
			c13,0,26.5-6,30.6-1.5C973.2,647.1,973.8,649.8,973.8,653.1z"/>

			<ellipse fill="#FFFFFF" stroke="#000000" stroke-width="0.25" stroke-linecap="round" stroke-linejoin="round" stroke-miterlimit="10" cx="940.1" cy="645.5" rx="31.1" ry="7.2"/>

			<rect x="922.6" y="428.4" fill="#FFFFFF" stroke="#000000" stroke-width="0.25" stroke-linecap="round" stroke-linejoin="round" stroke-miterlimit="10" width="29.8" height="219.4"/>

			<rect x="924.1" y="429.9" fill="#CCCCCC" stroke="#000000" stroke-width="0.25" stroke-linecap="round" stroke-linejoin="round" stroke-miterlimit="10" width="26.8" height="95.3"/>

			<path fill="#FFFFFF" stroke="#000000" stroke-width="0.25" stroke-linecap="round" stroke-linejoin="round" stroke-miterlimit="10" d="
			M952.3,647.9l1.9-4.3c0,0-0.6-154.3-0.6-178.5c0-24.2-1.3-36.7-1.3-36.7V647.9z"/>
	</g>
	<g>

			<polygon fill="#CCCCCC" stroke="#000000" stroke-width="0.25" stroke-linecap="round" stroke-linejoin="round" stroke-miterlimit="10" points="
			585,663.6 585,762.6 858.3,678.9 858.3,607.6 		"/>

			<polygon fill="#CCCCCC" stroke="#000000" stroke-width="0.25" stroke-linecap="round" stroke-linejoin="round" stroke-miterlimit="10" points="
			585,762.6 874.7,845.9 1125,725.6 858.3,678.9 		"/>

			<polygon fill="#CCCCCC" stroke="#000000" stroke-width="0.25" stroke-linecap="round" stroke-linejoin="round" stroke-miterlimit="10" points="
			858.3,607.6 858.3,678.9 845,682.9 1108,733.9 1125,725.6 1125,643.6 		"/>

			<polygon fill="#FFFFFF" stroke="#000000" stroke-width="0.25" stroke-linecap="round" stroke-linejoin="round" stroke-miterlimit="10" points="
			874.7,727.6 874.7,881 902.8,865.7 902.8,718.2 		"/>

			<polygon fill="#FFFFFF" stroke="#000000" stroke-width="0.25" stroke-linecap="round" stroke-linejoin="round" stroke-miterlimit="10" points="
			874.7,727.6 874.7,881 841.7,870.9 841.7,720.3 		"/>

			<polygon fill="#FFFFFF" stroke="#000000" stroke-width="0.25" stroke-linecap="round" stroke-linejoin="round" stroke-miterlimit="10" points="
			618,670.9 618,772.2 585,762.6 585,663.6 		"/>

			<polygon fill="#FFFFFF" stroke="#000000" stroke-width="0.25" stroke-linecap="round" stroke-linejoin="round" stroke-miterlimit="10" points="
			618,670.9 618,772.2 644.5,762.6 644.5,676.7 		"/>

			<polygon fill="#FFFFFF" stroke="#000000" stroke-width="0.25" stroke-linecap="round" stroke-linejoin="round" stroke-miterlimit="10" points="
			585,663.6 874.7,727.6 1125,643.6 858.3,607.6 		"/>

			<polygon fill="#FFFFFF" stroke="#000000" stroke-width="0.25" stroke-linecap="round" stroke-linejoin="round" stroke-miterlimit="10" points="
			874.7,760.9 874.7,727.6 585,663.6 585,690.3 		"/>

			<polygon fill="#FFFFFF" stroke="#000000" stroke-width="0.25" stroke-linecap="round" stroke-linejoin="round" stroke-miterlimit="10" points="
			874.7,881 874.7,845.9 585,762.6 585,791.1 		"/>

			<polygon fill="#FFFFFF" stroke="#000000" stroke-width="0.25" stroke-linecap="round" stroke-linejoin="round" stroke-miterlimit="10" points="
			1107.7,754.9 1107.7,649.5 1125,643.6 1125,746.1 		"/>

			<polygon fill="#FFFFFF" stroke="#000000" stroke-width="0.25" stroke-linecap="round" stroke-linejoin="round" stroke-miterlimit="10" points="
			874.7,760.9 874.7,727.6 1125,643.6 1125,666.3 		"/>

			<polygon fill="#FFFFFF" stroke="#000000" stroke-width="0.25" stroke-linecap="round" stroke-linejoin="round" stroke-miterlimit="10" points="
			874.7,881 874.7,845.9 1125,725.6 1125,746.1 		"/>
	</g>
	<g>

			<path fill="#FFFFFF" stroke="#000000" stroke-width="0.25" stroke-linecap="round" stroke-linejoin="round" stroke-miterlimit="10" d="
			M1487.8,811.2l48.1-0.9l0.1,68.6l-1.5,3.3c0,0-3.4-0.8-4.3-2s-1.5-1.6-1.5-4.4s-1.4-21.6-8.3-32.1c-12.5-19.3-32.5-24.5-32.5-24.5
			L1487.8,811.2z"/>

			<path fill="#FFFFFF" stroke="#000000" stroke-width="0.25" stroke-linecap="round" stroke-linejoin="round" stroke-miterlimit="10" d="
			M1524.8,826.2c0,0,0,6.8,0,8.5s1.8,2.5,3.5,0.3s5.3-2.8,6,3.5s0.3,43.8,0.3,43.8s1.3-1.6,1.9-2.3s0.8-0.6,0.8-4
			s-0.3-65.6-0.3-65.6L1524.8,826.2z"/>

			<path fill="#FFFFFF" stroke="#000000" stroke-width="0.25" stroke-linecap="round" stroke-linejoin="round" stroke-miterlimit="10" d="
			M1340.3,955.9v12c0,0,29.3,10,43.3,25.3s16,30.7,16,46c0,15.3,0,20.7,0,24.7s0.8,6.8,2.8,7.8s7,2.5,8.5,2.8s4.8-3.8,5-5.3
			s1-18.5,1.8-35.5c0.8-17,1-35,5-48s13-23.3,13-23.3v-16c0,0-22,27-23.5,28.8s-2,1-6.3,0S1340.3,955.9,1340.3,955.9z"/>

			<line fill="none" stroke="#000000" stroke-width="0.25" stroke-linecap="round" stroke-linejoin="round" stroke-miterlimit="10" x1="1411.8" y1="984.7" x2="1411.7" y2="1066.6"/>

			<path fill="#FFFFFF" stroke="#000000" stroke-width="0.25" stroke-linecap="round" stroke-linejoin="round" stroke-miterlimit="10" d="
			M1530.3,763.9c0,0,7.3,2.7,7.3,12.7s0,36,0,36s-120,164-122.7,167.3c-2.7,3.3-4,2.7-12,0c-8-2.7-412-117.3-412-117.3l-4.7-54
			c0,0-1.3-18,4.7-18s401.3,99.3,401.3,99.3s115.3-114.7,121.3-118.7S1528.3,763.9,1530.3,763.9z"/>

			<path fill="#FFFFFF" stroke="#000000" stroke-width="0.25" stroke-linecap="round" stroke-linejoin="round" stroke-miterlimit="10" d="
			M987,810.6c-4.5-15.6-4.7-34.7,1.3-45.3s34-23.3,52-32c18-8.7,32.4-10.8,46.7-17.3c16-7.3,28-8,34.7-14c6.7-6,62-23.3,69.3-25.3
			s19.3-2,30.7-2c11.3,0,88.7,10.7,118,13.3c29.3,2.7,106.7,17.3,118,20c11.3,2.7,82,7.3,81.3,30c-0.7,22.7,0,26.7-3.3,32
			c-3.3,5.3-115.3,132-120,136.7c-4.7,4.7-16-0.7-31.3-4.7c-15.3-4-79.3-21.3-141.3-34c-62-12.7-219.3-49.3-232.7-51.3
			C997,814.6,988.3,815.3,987,810.6z"/>

			<path fill="none" stroke="#000000" stroke-width="0.25" stroke-linecap="round" stroke-linejoin="round" stroke-miterlimit="10" d="
			M1412.8,877.4c-0.5-15.8-2.1-34.6-30.8-46.5c-34.8-14.5-113-32.3-113-32.3"/>
	</g>

		<path fill="none" stroke="#000000" stroke-width="0.25" stroke-linecap="round" stroke-linejoin="round" stroke-miterlimit="10" d="
		M1439.5,797.4c0,0-13.8,16.5-21.5,30.8c-2.7,4.9-6.3,17.3-6.3,17.3"/>

		<path fill="#FFFFFF" stroke="#000000" stroke-width="0.25" stroke-linecap="round" stroke-linejoin="round" stroke-miterlimit="10" d="
		M1810.3,457.3l66-5.3c0,0,21.8,9.6,43.7,17.4c0,6.3,0,16.1,0,21.4c-17.3-4.7-34.5-9.3-45.7-12.2
		C1843.7,470.6,1810.3,457.3,1810.3,457.3z"/>

		<path fill="#FFFFFF" stroke="#000000" stroke-width="0.25" stroke-linecap="round" stroke-linejoin="round" stroke-miterlimit="10" d="
		M1810.3,457.3V1080H1920c0,0,0-555.4,0-589.2c-17.3-4.7-34.5-9.3-45.7-12.2C1843.7,470.6,1810.3,457.3,1810.3,457.3z"/>
	<g>
		<path fill="#FFFFFF" stroke="#000000" stroke-width="0.25" stroke-miterlimit="10" d="M0,603.4c0,0,11.5-20.5,18-23s23-3,31.5-2.5
			s22.5,2,27.5,5.5s33.5,15.5,46.5,18s47,8,83,11s44.5,7.5,52.5,28s5,151,5.5,159.5s-19.5,37-29,35.5s-218-104.5-222-107
			S0,708.4,0,708.4V603.4z"/>
		<path fill="#EEEEEE" d="M230.5,784.9c0,0,18-30.5,19.5-38.5s5.5-86.5,5-90.5s-8.5-27-11.5-29.5s-19.5-4-24-2.5s-15,15.5-19,16
			s-57.5-9.5-69.5-10.5s-14-11-16.5-13.5s-9,3-16.5,0.5s1.5-8-3.5-10s-4.5-0.5-16-1s-27.5-13-32-16s-19-0.5-21-3.5S6,601.4,5,604.9
			s1.5,22,0.5,26s-5,33-1.5,37.5s7,35,21.5,39s68,44,74,42.5s117.5,49,123,46.5S230.5,784.9,230.5,784.9z"/>
		<path fill="#FFFFFF" d="M131,878.9c3-1.1,356-122,373-126s588.1,168.5,604,172c9,2,31,69,19,74c-19.4,8.1-202,81.1-202,81.1H370
			c0,0-240-131.1-245-137.1S120,882.9,131,878.9z"/>
		<g>
			<path fill="#FFFFFF" stroke="#000000" stroke-width="0.25" stroke-miterlimit="10" d="M203.7,767.9c0-29.3,2.7-49.3,4.7-67.3
				c1.1-9.8,0-17.3,6.7-26.7c6.7-9.3,9.3-19.3,12.7-24c3.3-4.7,18.7-11.3,30.7-11.3c12,0,19.3,2.7,27.3,3.3
				c8,0.7,51.3,15.3,61.3,17.3s55.3,13.3,89.3,16s58,14,76.7,18.7c18.7,4.7,56.7,4.7,88.7,12c32,7.3,50,10.7,50,10.7s16-4,28,4.7
				s32,48.7,38,90.7s6.7,116.7,6,131.3c-0.7,14.7-5.3,69.3-16,79.3c-10.7,10-46,22.7-62.7,21.3c-16.7-1.3-428-174.7-438.7-186
				C195.7,846.6,203.7,793.9,203.7,767.9z"/>
			<path fill="#EEEEEE" d="M236,666.9c7-4,40,14,47,20s48,9,55,10s49-4,58-3s3,17,15,19s67-8,77-5s14,28,21,31s80.1,18.5,91.1,16.5
				s21,7.5,36,16.5c5.5,3.3,31-36,42-36s13.9,42,22.9,69s15,26,14,79s-5,116-12,125s-28,31-53,26s-427-172-436-183s-4-64-5-72
				s0-52,6-61s-5-28,1-34S229,670.9,236,666.9z"/>
		</g>

			<path fill="#FFFFFF" stroke="#000000" stroke-width="0.25" stroke-linecap="round" stroke-linejoin="round" stroke-miterlimit="10" d="
			M0,1080c0,0,0-406.7,0-418.7c40.3,17.3,88.3,37.3,105,44s49.3,21.3,39.3,17.3s-8-2.7-24-0.7S65.7,733.3,57,736.6
			c-8.7,3.3-15.3,7.3-15.3,38.7s0,304.7,0,304.7H0z"/>

			<path fill="#CCCCCC" stroke="#000000" stroke-width="0.25" stroke-linecap="round" stroke-linejoin="round" stroke-miterlimit="10" d="
			M63,1080c0,0,0-262.1,0-289.4c0-27.3,2-39.3,26-46c24-6.7,59.3-16,59.3-16s6-2-4-6s-8-2.7-24-0.7S65.7,733.3,57,736.6
			c-8.7,3.3-15.3,7.3-15.3,38.7s0,304.7,0,304.7H63z"/>

			<path fill="none" stroke="#000000" stroke-width="0.25" stroke-linecap="round" stroke-linejoin="round" stroke-miterlimit="10" d="
			M9.7,719.3c0,0,16,6,22,10.7c6,4.7,1.3,17.3-5.3,14"/>

			<path fill="#FFFFFF" stroke="#000000" stroke-width="0.25" stroke-linecap="round" stroke-linejoin="round" stroke-miterlimit="10" d="
			M690.7,1080c0-1,0-81.1,0-81.1l9.3-80c0,0-528.3-188.3-538.3-192.3s-8-2.7-24-0.7S83,737.3,74.3,740.6
			c-8.7,3.3-19.3,7.3-19.3,38.7s0,300.7,0,300.7H690.7z"/>

			<path fill="none" stroke="#000000" stroke-width="0.25" stroke-linecap="round" stroke-linejoin="round" stroke-miterlimit="10" d="
			M670.3,1003.3c0,0-574.7-241.3-582-244.7c-7.3-3.3-25.3,9.3-6,17.3s221.3,94,221.3,94"/>

			<path fill="#FFFFFF" stroke="#000000" stroke-width="0.25" stroke-linecap="round" stroke-linejoin="round" stroke-miterlimit="10" d="
			M700,918.9l-9.3,80c0,0,0,31,0,81.1c32.3,0,503.7,0,546.3,0c4-2.1,5.7,6.9,5.7-47.7c0-54.7,0-271.3,0-290.7c0-19.3,0-26.7-12-30
			c-12-3.3-38-8-48-7.3s-14,2.7-32.7,10S700,918.9,700,918.9z"/>

			<path fill="none" stroke="#000000" stroke-width="0.25" stroke-linecap="round" stroke-linejoin="round" stroke-miterlimit="10" d="
			M1233.7,730.6c0,0-496.7,254-511.3,266"/>
	</g>

		<path fill="#FFFFFF" stroke="#000000" stroke-width="0.25" stroke-linecap="round" stroke-linejoin="round" stroke-miterlimit="10" d="
		M136.5,229.4c-2,1-3,187.5-3,187.5L0,418.9v-206L136.5,229.4z"/>

		<polygon fill="#FFFFFF" stroke="#000000" stroke-width="0.25" stroke-linecap="round" stroke-linejoin="round" stroke-miterlimit="10" points="
		127.5,237.4 126,407.9 0,407.9 0,222.9 	"/>
</g>
<g id="bitmaps">
</g>
</svg>
